Extract content from Word and PowerPoint • officer package
…
  Function reference

      Extract content from Word and PowerPoint

Import Word document

Function docx_summary is returning content of a Word document.

library(officer)
example_docx <- system.file(package = "officer", "doc_examples/example.docx")
doc <- read_docx(example_docx)
content <- docx_summary(doc)
content

## # A tibble: 69 × 11
##    doc_index content_type     style_name
##        <int>        <chr>          <chr>
## 1          1    paragraph      heading 1
## 2          2    paragraph           <NA>
## 3          3    paragraph      heading 1
## 4          4    paragraph List Paragraph
## 5          5    paragraph List Paragraph
## 6          6    paragraph List Paragraph
## 7          7    paragraph      heading 2
## 8          8    paragraph List Paragraph
## 9          9    paragraph List Paragraph
## 10        10    paragraph List Paragraph
## # ... with 59 more rows, and 8 more variables: text <chr>, level <dbl>,
## #   num_id <int>, row_id <int>, is_header <lgl>, cell_id <dbl>,
## #   col_span <dbl>, row_span <dbl>
…
Word tables

Tables are unstacked:

table_cells <- content %>% filter(content_type %in% "table cell")
print(table_cells)

## # A tibble: 52 × 11
##    doc_index content_type    style_name        text level num_id row_id
##        <int>        <chr>         <chr>       <chr> <dbl>  <int>  <int>
## 1         16   table cell Light Shading      Petals    NA     NA      1
## 2         16   table cell Light Shading 5,621498349    NA     NA      2
## 3         16   table cell Light Shading 4,994616997    NA     NA      3
## 4         16   table cell Light Shading 4,767504884    NA     NA      4
## 5         16   table cell Light Shading 6,299445616    NA     NA      5
## 6         16   table cell Light Shading 6,489375001    NA     NA      6
## 7         16   table cell Light Shading   5,7858682    NA     NA      7
## 8         16   table cell Light Shading 5,645575295    NA     NA      8
## 9         16   table cell Light Shading 4,828953215    NA     NA      9
## 10        16   table cell Light Shading 6,783500773    NA     NA     10
## # ... with 42 more rows, and 4 more variables: is_header <lgl>,
## #   cell_id <dbl>, col_span <dbl>, row_span <dbl>

Cells positions and values are dispatched in columns row_id, cell_id, text and is_header (a logical column indicating if the cell is part of header or not). Note that content (column text) is a character vector.

table_body <- table_cells %>% 
  filter(!is_header) %>% 
  select(row_id, cell_id, text)
table_body

## # A tibble: 48 × 3
##    row_id cell_id        text
##     <int>   <dbl>       <chr>
## 1       2       1 5,621498349
## 2       3       1 4,994616997
## 3       4       1 4,767504884
## 4       5       1 6,299445616
## 5       6       1 6,489375001
## 6       7       1   5,7858682
## 7       8       1 5,645575295
## 8       9       1 4,828953215
## 9      10       1 6,783500773
## 10     11       1 5,395076839
## # ... with 38 more rows
…
## # A tibble: 1 × 5
##   row_id    `1`       `2`   `3`   `4`
## *  <int>  <chr>     <chr> <chr> <chr>
## 1      1 Petals Internode Sepal Bract

Import PowerPoint document

Function pptx_summary is returning content of a PowerPoint document

example_pptx <- system.file(package = "officer", "doc_examples/example.pptx")
doc <- read_pptx(example_pptx)
content <- pptx_summary(doc)
content

## # A tibble: 29 × 9
##                 text    id content_type slide_id row_id cell_id col_span
##                <chr> <chr>        <chr>    <int>  <int>   <int>    <dbl>
## 1              Title    12    paragraph        1     NA      NA       NA
## 2           A table     13    paragraph        1     NA      NA       NA
## 3      and some text    13    paragraph        1     NA      NA       NA
## 4  and some list (1)    13    paragraph        1     NA      NA       NA
## 5  and some list (2)    13    paragraph        1     NA      NA       NA
## 6          Header 1     18   table cell        1      1       1        1
## 7           Header 2    18   table cell        1      1       2        1
## 8           Header 3    18   table cell        1      1       3        1
## 9                  A    18   table cell        1      2       1        1
## 10             12.23    18   table cell        1      2       2        1
## # ... with 19 more rows, and 2 more variables: row_span <dbl>,
## #   magick_data <list>
…
