Word documents generation • officer package
…
Quick start

Start with read_docx

Use the function read_docx to create an r object representing a Word document.

Initial Word file can be specified with argument path. If none is provided, this file will be an empty document located in the package directory. Formats and styles are defined in the initial file.

From the initial document, we will be able to use an object containing not only paragraph styles, character styles and table styles of the original document but also its content.

my_doc <- read_docx() 

styles_info(my_doc)

## # A tibble: 21 x 5
##    style_type       style_id             style_name is_custom is_default
##         <chr>          <chr>                  <chr>     <lgl>      <lgl>
##  1  paragraph         Normal                 Normal     FALSE       TRUE
##  2  paragraph         Titre1              heading 1     FALSE      FALSE
##  3  paragraph         Titre2              heading 2     FALSE      FALSE
##  4  paragraph         Titre3              heading 3     FALSE      FALSE
##  5  character Policepardfaut Default Paragraph Font     FALSE       TRUE
##  6      table  TableauNormal           Normal Table     FALSE       TRUE
##  7  numbering    Aucuneliste                No List     FALSE       TRUE
##  8  character         strong                 strong      TRUE      FALSE
##  9  paragraph       centered               centered      TRUE      FALSE
## 10      table  tabletemplate         table_template      TRUE      FALSE
## # ... with 11 more rows
…
